{
	"$schema": "node_modules/lerna/schemas/lerna-schema.json",
	"version": "independent",
	"command": {
		"version": {
			"createRelease": "gitlab",
			"conventionalCommits": true,
			"allowBranch": ["main"],
			"message": "chore: release package(s)"
		}
	}
}
