{
	"extends": ["config:recommended", ":dependencyDashboard"],
	"schedule": ["before 3am on Monday"],
	"npm": { "enabled": true },
	"packageRules": [
		{
			"matchUpdateTypes": ["minor", "patch"],
			"automerge": false,
			"groupName": "all non-major dependencies",
			"groupSlug": "all-minor-patch",
			"matchPackageNames": ["*"]
		},
		{
			"matchUpdateTypes": ["major"],
			"automerge": false,
			"groupName": "all major dependencies",
			"groupSlug": "all-major",
			"matchPackageNames": ["*"]
		}
	]
}
